<?xml version="1.0" encoding="UTF-8" standalone="no"?>
<!-- Generator: Adobe Illustrator 16.0.0, SVG Export Plug-In . SVG Version: 6.00 Build 0)  -->

<svg
   xmlns:dc="http://purl.org/dc/elements/1.1/"
   xmlns:cc="http://creativecommons.org/ns#"
   xmlns:rdf="http://www.w3.org/1999/02/22-rdf-syntax-ns#"
   xmlns:svg="http://www.w3.org/2000/svg"
   xmlns="http://www.w3.org/2000/svg"
   xmlns:sodipodi="http://sodipodi.sourceforge.net/DTD/sodipodi-0.dtd"
   xmlns:inkscape="http://www.inkscape.org/namespaces/inkscape"
   version="1.1"
   x="0px"
   y="0px"
   width="60"
   height="20"
   viewBox="0 0 60 20"
   xml:space="preserve"
   id="svg3336"
   inkscape:version="0.91 r13725"
   sodipodi:docname="emc-logo.svg"><metadata
     id="metadata3364"><rdf:RDF><cc:Work
         rdf:about=""><dc:format>image/svg+xml</dc:format><dc:type
           rdf:resource="http://purl.org/dc/dcmitype/StillImage" /><dc:title></dc:title></cc:Work></rdf:RDF></metadata><defs
     id="defs3362" /><sodipodi:namedview
     pagecolor="#ffffff"
     bordercolor="#666666"
     borderopacity="1"
     objecttolerance="10"
     gridtolerance="10"
     guidetolerance="10"
     inkscape:pageopacity="0"
     inkscape:pageshadow="2"
     inkscape:window-width="1366"
     inkscape:window-height="706"
     id="namedview3360"
     showgrid="false"
     inkscape:zoom="3.9064516"
     inkscape:cx="41.981838"
     inkscape:cy="50"
     inkscape:window-x="-8"
     inkscape:window-y="-8"
     inkscape:window-maximized="1"
     inkscape:current-layer="svg3336"
     fit-margin-top="0"
     fit-margin-left="0"
     fit-margin-right="0"
     fit-margin-bottom="0" /><style
     type="text/css"
     id="style3338"><![CDATA[
	.st0{fill:#FFFFFF;}
]]></style><g
     id="Layer_1"
     transform="matrix(0.19362882,0,0,0.19992523,-0.02493342,0.00289002)"><g
       id="g3341"><g
         id="g3343"><g
           id="g3345"><path
             class="st0"
             d="m 1.3,16.9 70.7,0.3 0,20.9 c 0.2,1.4 -1.5,1.1 -1.8,-0.2 -0.7,-3.4 -6.6,-11.6 -7.7,-12.3 l -29.6,0 0,25.5 24.8,0 c 1.8,-0.7 4.7,-5.7 6.6,-10.7 0.7,-1.8 2.1,-0.7 2,-0.2 -0.5,8.2 -0.3,23.2 -0.2,29.3 0,2.3 -1.1,3 -1.8,0.9 -0.7,-2 -4.1,-9.1 -6.4,-10.9 l -25,0 0,29.1 32.1,0 c 1.8,-1.4 6.5,-11.6 7.1,-14.3 0.2,-1.1 2.1,-1.1 2.1,-0.2 l 0,24.1 -50.3,-0.7 c -10.2,0 -12.7,0 -22.5,0.9 C -0.2,98.5 -0.2,96.2 0.9,95.7 12,90.5 13.4,93.4 13.4,77.5 L 13.4,34 C 13.4,22.2 10,22.6 0.9,19.2 -0.2,18.9 0.3,17.2 1.3,16.9 Z"
             id="path3347"
             inkscape:connector-curvature="0"
             style="fill:#ffffff" /><path
             class="st0"
             d="m 89.3,16.5 33,0.7 25.2,51.8 26.2,-51.2 c 0,0 20.5,0 22.3,0 1.8,0 8.9,-0.7 10,-0.9 1.1,-0.2 1.4,2 0.5,2.5 -0.9,0.5 -11.8,5 -13,6.6 l 6.6,63.2 c 0.9,2 12,6.7 13.9,7.1 1.4,0.2 0.9,1.9 0.2,1.8 -7.1,-0.5 -38.9,-0.5 -45.7,0 -0.7,0 -3.6,-1.1 -0.5,-2 3.6,-1.1 10.9,-3.6 12.5,-6.4 l -4.5,-55 -31.4,63.5 -5.2,0 -28.7,-62.1 -5,53.2 c 2,4.1 11.6,5.9 12.7,6.4 1.1,0.4 1.1,2.1 0.2,2 -6.8,-0.7 -32.3,-0.2 -35,0.2 -1.4,0.2 -3.8,-1.5 -0.7,-2.5 8.9,-2.8 11.8,-0.2 13.9,-20.9 L 102.3,29 C 103,21.5 93.4,20.6 89.1,19 88.4,18.8 87.7,16.5 89.3,16.5 Z"
             id="path3349"
             inkscape:connector-curvature="0"
             style="fill:#ffffff" /><path
             class="st0"
             d="m 279.5,37.4 0.7,-20.9 c -9.3,-1.1 -32.4,-4.9 -51.4,9.1 -19.8,14.5 -25.2,51.7 0.5,68.5 17.1,11.1 48.2,3.4 50.5,2.3 0.9,-0.5 2.1,-1.1 2.1,-2 0,-0.9 0.2,-19.6 0.2,-20.5 0,-0.9 -1.4,-0.7 -2.1,0.2 -0.7,0.9 -4.2,14.2 -7.5,15.9 -7.3,3.7 -24.8,6.1 -33.9,-12.5 -6,-12.2 -6.2,-28.8 2.5,-43.9 9,-15.7 25.9,-11.2 28,-10 3.9,2.3 6.2,7.3 8,13.6 0.6,2.5 2.2,2 2.4,0.2 z"
             id="path3351"
             inkscape:connector-curvature="0"
             style="fill:#ffffff" /><path
             class="st0"
             d="m 285.9,5.8 c 9.6,-8.9 18,-5.7 20.9,-2.7 3,3 4.9,9.4 -2,16.4 -3.4,3.4 -10.5,8.9 -10.5,8.9 0,0 11.1,0 10.9,0 1.1,-0.2 3.1,-4.1 3.9,-5.2 0.5,-0.7 0.9,-0.5 0.9,0.5 0,0.9 0,11.6 0,11.6 -3.2,-0.2 -22.1,-0.2 -25,-0.2 l 0,-3.9 c 5,-3.9 9.8,-9.3 13.4,-13.9 3.6,-4.6 3,-16.7 -9.8,-9.6 -2,1.1 -3.4,-0.1 -2.7,-1.9 z"
             id="path3353"
             inkscape:connector-curvature="0"
             style="fill:#ffffff" /></g></g><path
         class="st0"
         d="m 294,80.3 c 3.5,0 6.2,2.8 6.2,6.3 0,3.6 -2.8,6.4 -6.3,6.4 -3.5,0 -6.3,-2.8 -6.3,-6.4 0.1,-3.5 2.9,-6.3 6.4,-6.3 l 0,0 z m 0,1 c -2.8,0 -5.1,2.4 -5.1,5.4 0,3 2.3,5.4 5.1,5.4 2.8,0 5.1,-2.4 5.1,-5.4 0,-3 -2.3,-5.4 -5.1,-5.4 l 0,0 z m -1.2,9 -1.1,0 0,-7.1 c 0.6,-0.1 1.2,-0.2 2,-0.2 1.1,0 1.8,0.2 2.2,0.5 0.4,0.3 0.6,0.8 0.6,1.5 0,0.9 -0.6,1.5 -1.4,1.7 l 0,0.1 c 0.6,0.1 1,0.7 1.2,1.7 0.2,1.1 0.3,1.5 0.5,1.7 l -1.2,0 c -0.2,-0.2 -0.3,-0.9 -0.5,-1.8 -0.2,-0.9 -0.6,-1.2 -1.5,-1.2 l -0.8,0 0,3.1 z m 0,-3.9 0.8,0 c 0.9,0 1.7,-0.3 1.7,-1.2 0,-0.6 -0.5,-1.2 -1.7,-1.2 -0.4,0 -0.6,0 -0.8,0.1 l 0,2.3 z"
         id="path3355"
         inkscape:connector-curvature="0"
         style="fill:#ffffff" /><path
         class="st0"
         d="m 294,80.3 c 3.5,0 6.2,2.8 6.2,6.3 0,3.6 -2.8,6.4 -6.3,6.4 -3.5,0 -6.3,-2.8 -6.3,-6.4 0.1,-3.5 2.9,-6.3 6.4,-6.3 l 0,0 z m 0,1 c -2.8,0 -5.1,2.4 -5.1,5.4 0,3 2.3,5.4 5.1,5.4 2.8,0 5.1,-2.4 5.1,-5.4 0,-3 -2.3,-5.4 -5.1,-5.4 l 0,0 z m -1.2,9 -1.1,0 0,-7.1 c 0.6,-0.1 1.2,-0.2 2,-0.2 1.1,0 1.8,0.2 2.2,0.5 0.4,0.3 0.6,0.8 0.6,1.5 0,0.9 -0.6,1.5 -1.4,1.7 l 0,0.1 c 0.6,0.1 1,0.7 1.2,1.7 0.2,1.1 0.3,1.5 0.5,1.7 l -1.2,0 c -0.2,-0.2 -0.3,-0.9 -0.5,-1.8 -0.2,-0.9 -0.6,-1.2 -1.5,-1.2 l -0.8,0 0,3.1 z m 0,-3.9 0.8,0 c 0.9,0 1.7,-0.3 1.7,-1.2 0,-0.6 -0.5,-1.2 -1.7,-1.2 -0.4,0 -0.6,0 -0.8,0.1 l 0,2.3 z"
         id="path3357"
         inkscape:connector-curvature="0"
         style="fill:#ffffff" /></g></g><g
     id="Layer_2"
     transform="translate(0,-80)" /></svg>